<?xml version="1.0" standalone="no"?>
<!DOCTYPE svg PUBLIC "-//W3C//DTD SVG 1.1//EN" "http://www.w3.org/Graphics/SVG/1.1/DTD/svg11.dtd" >
<svg xmlns="http://www.w3.org/2000/svg">
<metadata>Generated by IcoMoon</metadata>
<defs>
<font id="pabloibanez" horiz-adv-x="1024">
<font-face units-per-em="1024" ascent="960" descent="-64" />
<missing-glyph horiz-adv-x="1024" />
<glyph unicode="&#x20;" horiz-adv-x="512" d="" />
<glyph unicode="&#xe900;" glyph-name="responsabilities" d="M160 832c0-53 42.968-96 96-96s96 43 96 96-42.968 96-96 96-96-43-96-96zM448 608c0-32 0-210.218 0-210.218 0-45.782-35.688-77.782-76.782-77.782h-19.218v-256c0-35.312-26.376-64-58.938-64h-74.126c-32.56 0-58.936 28.688-58.936 64v256h-19.218c-41.094 0-76.782 32-76.782 77.782 0 0 0.5 173.784 0.5 208s5.126 49.968 20.5 68.75c15.376 18.718 37.406 29.468 60.532 29.468h13.782l51.876-102.406 27.438 40.032c-5.816 4.374-14.628 16.374-14.628 41.342 0 17.938 14.75 21.032 32.626 21.032s31.374-3.094 31.374-21.032c0-24.968-9.218-36.968-15.062-41.344l27.876-40.032 51.874 102.408h13.782c23.126 0 45.156-10.75 60.532-29.468 15.374-18.782 20.998-34.532 20.998-66.532zM640 768v-288h96v-64h-96v-288h96v-64h-128c-17.688 0-32 14.312-32 32v320h-96v64h96v320c0 17.688 14.312 32 32 32h128v-64h-96zM960 384c0-17.674-14.326-32-32-32h-128c-17.674 0-32 14.326-32 32v128c0 17.672 14.326 32 32 32h128c17.674 0 32-14.328 32-32v-128zM960 736c0-17.672-14.326-32-32-32h-128c-17.674 0-32 14.328-32 32v128c0 17.672 14.326 32 32 32h128c17.674 0 32-14.328 32-32v-128zM960 32c0-17.674-14.326-32-32-32h-128c-17.674 0-32 14.326-32 32v128c0 17.674 14.326 32 32 32h128c17.674 0 32-14.326 32-32v-128z" />
<glyph unicode="&#xe901;" glyph-name="techstack" d="M945.6 960h-867.2c-43.2 0-76.8-35.2-76.8-78.4v-648c0-43.2 35.2-78.4 78.4-78.4h329.6v-92.8c-60.8-9.6-107.2-62.4-107.2-124.8h424c0 64-46.4 116.8-107.2 124.8v92.8h329.6c43.2 0 78.4 35.2 78.4 78.4v648c-4.8 43.2-38.4 78.4-81.6 78.4zM512 182.4c-11.2 0-19.2 8-19.2 19.2s8 19.2 19.2 19.2c11.2 0 19.2-8 19.2-19.2 0-9.6-8-19.2-19.2-19.2zM910.4 260.8h-796.8v593.6h796.8v-593.6zM528 528c-40-4.8-70.4-40-65.6-80s40-70.4 80-65.6c40 4.8 70.4 40 65.6 80-3.2 40-40 68.8-80 65.6zM540.8 400c-28.8-3.2-56 19.2-59.2 48s19.2 56 48 59.2c28.8 3.2 56-19.2 59.2-48s-19.2-56-48-59.2zM694.4 443.2l-4.8 52.8-52.8-4.8c-3.2 9.6-8 17.6-14.4 25.6l33.6 41.6-41.6 35.2-33.6-41.6c-8 4.8-17.6 6.4-27.2 8l-4.8 52.8-56-4.8 4.8-52.8c-9.6-3.2-17.6-8-25.6-14.4l-41.6 33.6-35.2-41.6 41.6-33.6c-4.8-8-6.4-17.6-8-27.2l-52.8-4.8 4.8-54.4 52.8 4.8c3.2-9.6 8-17.6 14.4-25.6l-33.6-41.6 41.6-35.2 33.6 41.6c8-4.8 17.6-6.4 27.2-8l4.8-52.8 54.4 4.8-4.8 52.8c9.6 3.2 17.6 8 25.6 14.4l41.6-33.6 35.2 41.6-41.6 33.6c4.8 8 6.4 17.6 8 27.2l54.4 6.4zM544 364.8c-48-4.8-92.8 30.4-97.6 80-4.8 48 30.4 92.8 80 97.6 48 4.8 92.8-30.4 97.6-80 4.8-48-30.4-92.8-80-97.6zM304 659.2c-28.8 3.2-56-17.6-59.2-46.4s17.6-56 46.4-59.2c28.8-3.2 56 17.6 59.2 46.4 4.8 28.8-17.6 56-46.4 59.2zM292.8 568c-20.8 3.2-36.8 22.4-33.6 43.2s22.4 36.8 43.2 33.6c20.8-3.2 36.8-22.4 33.6-43.2-1.6-20.8-22.4-36.8-43.2-33.6zM408 572.8l4.8 38.4-38.4 4.8c-1.6 6.4-3.2 14.4-6.4 20.8l30.4 24-24 30.4-30.4-24c-4.8 4.8-11.2 8-17.6 9.6l4.8 38.4-38.4 4.8-4.8-36.8c-6.4-1.6-14.4-3.2-20.8-6.4l-24 30.4-30.4-24 24-30.4c-4.8-4.8-8-11.2-9.6-17.6l-40 4.8-4.8-38.4 38.4-4.8c1.6-6.4 3.2-14.4 6.4-20.8l-30.4-24 24-30.4 30.4 24c4.8-4.8 11.2-8 17.6-9.6l-4.8-40 38.4-4.8 4.8 38.4c6.4 1.6 14.4 3.2 20.8 6.4l24-30.4 32 22.4-24 32c4.8 4.8 8 11.2 9.6 17.6l38.4-4.8zM289.6 542.4c-35.2 4.8-60.8 36.8-56 72s36.8 60.8 72 56c35.2-4.8 60.8-36.8 56-72s-36.8-60.8-72-56zM891.2 460.8v28.8c-41.6 0-75.2 33.6-75.2 75.2s33.6 75.2 75.2 75.2v28.8c-57.6 0-104-46.4-104-104s46.4-104 104-104zM670.4 603.2v-76.8h75.2c3.2-12.8 8-25.6 16-38.4l-52.8-52.8 54.4-54.4 52.8 52.8c11.2-6.4 24-12.8 38.4-16v-75.2h38.4v96c-68.8 0-124.8 56-124.8 124.8s56 124.8 124.8 124.8v96h-38.4v-75.2c-12.8-3.2-25.6-8-38.4-16l-52.8 52.8-54.4-54.4 52.8-52.8c-6.4-11.2-12.8-24-16-38.4h-75.2z" />
<glyph unicode="&#xe902;" glyph-name="achievements" d="M513.6 237.8c-199 0-361 162-361 361 0 199.2 162 361.2 361 361.2s361-162 361-361c0-199.2-162-361.2-361-361.2zM513.6 791.8c-106.4 0-193-86.6-193-193s86.6-192.8 193-192.8 193 86.6 193 192.8c0 106.6-86.6 193-193 193zM653 599c0-76.988-62.412-139.4-139.4-139.4s-139.4 62.412-139.4 139.4c0 76.988 62.412 139.4 139.4 139.4s139.4-62.412 139.4-139.4zM194.4 351l-161-273.4 150.8-19 89.6-122.6 159.8 271.2c-102.4 14-181.6 62.8-239.2 143.8zM829.6 351l161.2-273.4-150.8-19-89.6-122.6-159.8 271.2c102.2 14 181.4 62.8 239 143.8z" />
<glyph unicode="&#xe903;" glyph-name="continuous" d="M313.040 372.24l32-28.48 32 36-121.040 106.72c-4.236 3.83-9.879 6.174-16.070 6.174-12.612 0-22.952-9.728-23.925-22.091l-0.005-0.083-12.48-160.88 48-3.84 3.2 40c41.953-104.881 142.664-177.644 260.385-177.76h0.015v64c-91.999 0.087-170.525 57.676-201.582 138.76l-0.498 1.48zM694 672.48c0.149 1.006 0.235 2.168 0.235 3.349 0 8.169-4.081 15.385-10.316 19.719l-0.079 0.052-132.8 91.44-27.2-39.52 33.44-23.040c-12.893 2.114-27.752 3.321-42.893 3.321-102.788 0-192.576-55.657-240.873-138.477l-0.713-1.324 55.36-32c37.806 64.929 107.082 107.877 186.39 107.877 12.636 0 25.016-1.090 37.054-3.182l-1.283 0.185-40.56-13.6 15.28-45.52 152.88 51.36c8.502 2.934 14.754 10.279 16.064 19.23l0.016 0.13zM736.72 277.28c36.283 46.742 58.165 106.24 58.165 170.849 0 52.504-14.451 101.632-39.592 143.625l0.707-1.274-55.040-32.64c18.809-31.343 29.933-69.159 29.933-109.573 0-52.853-19.025-101.262-50.6-138.753l0.267 0.326 9.2 45.68-47.040 9.28-32-158.080c-0.299-1.421-0.47-3.054-0.47-4.727 0-13.255 10.745-24 24-24 3.747 0 7.293 0.859 10.453 2.39l-0.143-0.062 145.6 69.28-20.56 43.36z" />
<glyph unicode="&#xe904;" glyph-name="menu" d="M128 682.667h768v-86h-768v86zM128 384.667v84h768v-84h-768zM128 170.667v86h768v-86h-768z" />
<glyph unicode="&#xe905;" glyph-name="mail" d="M20.48 724.746v-645.386h983.040v737.28h-983.040v-91.894zM61.44 692.675l319.488-250.040-319.488-279.020v529.060zM74.138 120.32l339.64 296.612 98.222-76.861 98.222 76.861 339.64-296.612h-875.725zM962.56 163.615l-319.488 279.040 319.488 250.040v-529.080zM61.44 775.68h901.12v-30.986l-450.56-352.604-450.56 352.604v30.986z" />
<glyph unicode="&#xe906;" glyph-name="business" d="M768 298.667v-86h-86v86h86zM768 468.667v-84h-86v84h86zM854 128.667v426h-342v-86h86v-84h-86v-86h86v-86h-86v-84h342zM426 640.667v84h-84v-84h84zM426 468.667v86h-84v-86h84zM426 298.667v86h-84v-86h84zM426 128.667v84h-84v-84h84zM256 640.667v84h-86v-84h86zM256 468.667v86h-86v-86h86zM256 298.667v86h-86v-86h86zM256 128.667v84h-86v-84h86zM512 640.667h426v-598h-852v768h426v-170z" />
<glyph unicode="&#xe948;" glyph-name="location" d="M512 960c-176.732 0-320-143.268-320-320 0-320 320-704 320-704s320 384 320 704c0 176.732-143.27 320-320 320zM512 444c-108.248 0-196 87.752-196 196s87.752 196 196 196 196-87.752 196-196-87.752-196-196-196zM388 640c0 68.483 55.517 124 124 124s124-55.517 124-124c0-68.483-55.517-124-124-124s-124 55.517-124 124z" />
<glyph unicode="&#xe953;" glyph-name="calendar" d="M320 576h128v-128h-128zM512 576h128v-128h-128zM704 576h128v-128h-128zM128 192h128v-128h-128zM320 192h128v-128h-128zM512 192h128v-128h-128zM320 384h128v-128h-128zM512 384h128v-128h-128zM704 384h128v-128h-128zM128 384h128v-128h-128zM832 960v-64h-128v64h-448v-64h-128v64h-128v-1024h960v1024h-128zM896 0h-832v704h832v-704z" />
<glyph unicode="&#xe995;" glyph-name="cogs, architecture" d="M363.722 237.948l41.298 57.816-45.254 45.256-57.818-41.296c-10.722 5.994-22.204 10.774-34.266 14.192l-11.682 70.084h-64l-11.68-70.086c-12.062-3.418-23.544-8.198-34.266-14.192l-57.818 41.298-45.256-45.256 41.298-57.816c-5.994-10.72-10.774-22.206-14.192-34.266l-70.086-11.682v-64l70.086-11.682c3.418-12.060 8.198-23.544 14.192-34.266l-41.298-57.816 45.254-45.256 57.818 41.296c10.722-5.994 22.204-10.774 34.266-14.192l11.682-70.084h64l11.68 70.086c12.062 3.418 23.544 8.198 34.266 14.192l57.818-41.296 45.254 45.256-41.298 57.816c5.994 10.72 10.774 22.206 14.192 34.266l70.088 11.68v64l-70.086 11.682c-3.418 12.060-8.198 23.544-14.192 34.266zM224 96c-35.348 0-64 28.654-64 64s28.652 64 64 64 64-28.654 64-64-28.652-64-64-64zM1024 576v64l-67.382 12.25c-1.242 8.046-2.832 15.978-4.724 23.79l57.558 37.1-24.492 59.128-66.944-14.468c-4.214 6.91-8.726 13.62-13.492 20.13l39.006 56.342-45.256 45.254-56.342-39.006c-6.512 4.766-13.22 9.276-20.13 13.494l14.468 66.944-59.128 24.494-37.1-57.558c-7.812 1.892-15.744 3.482-23.79 4.724l-12.252 67.382h-64l-12.252-67.382c-8.046-1.242-15.976-2.832-23.79-4.724l-37.098 57.558-59.128-24.492 14.468-66.944c-6.91-4.216-13.62-8.728-20.13-13.494l-56.342 39.006-45.254-45.254 39.006-56.342c-4.766-6.51-9.278-13.22-13.494-20.13l-66.944 14.468-24.492-59.128 57.558-37.1c-1.892-7.812-3.482-15.742-4.724-23.79l-67.384-12.252v-64l67.382-12.25c1.242-8.046 2.832-15.978 4.724-23.79l-57.558-37.1 24.492-59.128 66.944 14.468c4.216-6.91 8.728-13.618 13.494-20.13l-39.006-56.342 45.254-45.256 56.342 39.006c6.51-4.766 13.22-9.276 20.13-13.492l-14.468-66.944 59.128-24.492 37.102 57.558c7.81-1.892 15.742-3.482 23.788-4.724l12.252-67.384h64l12.252 67.382c8.044 1.242 15.976 2.832 23.79 4.724l37.1-57.558 59.128 24.492-14.468 66.944c6.91 4.216 13.62 8.726 20.13 13.492l56.342-39.006 45.256 45.256-39.006 56.342c4.766 6.512 9.276 13.22 13.492 20.13l66.944-14.468 24.492 59.13-57.558 37.1c1.892 7.812 3.482 15.742 4.724 23.79l67.382 12.25zM672 468.8c-76.878 0-139.2 62.322-139.2 139.2s62.32 139.2 139.2 139.2 139.2-62.322 139.2-139.2c0-76.878-62.32-139.2-139.2-139.2z" />
<glyph unicode="&#xe9ae;" glyph-name="briefcase" d="M960 704h-256v64c0 35.2-28.8 64-64 64h-256c-35.204 0-64-28.8-64-64v-64h-256c-35.2 0-64-28.8-64-64v-576c0-35.202 28.796-64 64-64h896c35.2 0 64 28.798 64 64v576c0 35.2-28.8 64-64 64zM384 767.884c0.034 0.040 0.074 0.082 0.114 0.116h255.772c0.042-0.034 0.082-0.076 0.118-0.116v-63.884h-256.004v63.884zM960 448h-128v-96c0-17.602-14.4-32-32-32h-64c-17.604 0-32 14.398-32 32v96h-384v-96c0-17.602-14.4-32-32-32h-64c-17.602 0-32 14.398-32 32v96h-128v64h896v-64z" />
<glyph unicode="&#xe9ca;" glyph-name="earth" d="M512 960c-282.77 0-512-229.23-512-512s229.23-512 512-512 512 229.23 512 512-229.23 512-512 512zM512-0.002c-62.958 0-122.872 13.012-177.23 36.452l233.148 262.29c5.206 5.858 8.082 13.422 8.082 21.26v96c0 17.674-14.326 32-32 32-112.99 0-232.204 117.462-233.374 118.626-6 6.002-14.14 9.374-22.626 9.374h-128c-17.672 0-32-14.328-32-32v-192c0-12.122 6.848-23.202 17.69-28.622l110.31-55.156v-187.886c-116.052 80.956-192 215.432-192 367.664 0 68.714 15.49 133.806 43.138 192h116.862c8.488 0 16.626 3.372 22.628 9.372l128 128c6 6.002 9.372 14.14 9.372 22.628v77.412c40.562 12.074 83.518 18.588 128 18.588 70.406 0 137.004-16.26 196.282-45.2-4.144-3.502-8.176-7.164-12.046-11.036-36.266-36.264-56.236-84.478-56.236-135.764s19.97-99.5 56.236-135.764c36.434-36.432 85.218-56.264 135.634-56.26 3.166 0 6.342 0.080 9.518 0.236 13.814-51.802 38.752-186.656-8.404-372.334-0.444-1.744-0.696-3.488-0.842-5.224-81.324-83.080-194.7-134.656-320.142-134.656z" />
<glyph unicode="&#xeab0;" glyph-name="github" d="M512.008 947.358c-282.738 0-512.008-229.218-512.008-511.998 0-226.214 146.704-418.132 350.136-485.836 25.586-4.738 34.992 11.11 34.992 24.632 0 12.204-0.48 52.542-0.696 95.324-142.448-30.976-172.504 60.41-172.504 60.41-23.282 59.176-56.848 74.916-56.848 74.916-46.452 31.778 3.51 31.124 3.51 31.124 51.4-3.61 78.476-52.766 78.476-52.766 45.672-78.27 119.776-55.64 149.004-42.558 4.588 33.086 17.852 55.68 32.506 68.464-113.73 12.942-233.276 56.85-233.276 253.032 0 55.898 20.004 101.574 52.76 137.428-5.316 12.9-22.854 64.972 4.952 135.5 0 0 43.006 13.752 140.84-52.49 40.836 11.348 84.636 17.036 128.154 17.234 43.502-0.198 87.336-5.886 128.256-17.234 97.734 66.244 140.656 52.49 140.656 52.49 27.872-70.528 10.35-122.6 5.036-135.5 32.82-35.856 52.694-81.532 52.694-137.428 0-196.654-119.778-239.95-233.79-252.624 18.364-15.89 34.724-47.046 34.724-94.812 0-68.508-0.596-123.644-0.596-140.508 0-13.628 9.222-29.594 35.172-24.566 203.322 67.776 349.842 259.626 349.842 485.768 0 282.78-229.234 511.998-511.992 511.998z" />
<glyph unicode="&#xeac9;" glyph-name="linkedin-square" d="M928 960h-832c-52.8 0-96-43.2-96-96v-832c0-52.8 43.2-96 96-96h832c52.8 0 96 43.2 96 96v832c0 52.8-43.2 96-96 96zM384 128h-128v448h128v-448zM320 640c-35.4 0-64 28.6-64 64s28.6 64 64 64c35.4 0 64-28.6 64-64s-28.6-64-64-64zM832 128h-128v256c0 35.4-28.6 64-64 64s-64-28.6-64-64v-256h-128v448h128v-79.4c26.4 36.2 66.8 79.4 112 79.4 79.6 0 144-71.6 144-160v-288z" />
<glyph unicode="&#xeaca;" glyph-name="linkedin" d="M384 576h177.106v-90.782h2.532c24.64 44.194 84.958 90.782 174.842 90.782 186.946 0 221.52-116.376 221.52-267.734v-308.266h-184.61v273.278c0 65.184-1.334 149.026-96.028 149.026-96.148 0-110.82-70.986-110.82-144.292v-278.012h-184.542v576zM64 576h192v-576h-192v576zM256 736c0-53.019-42.981-96-96-96s-96 42.981-96 96c0 53.019 42.981 96 96 96s96-42.981 96-96z" />
<glyph unicode="&#xf040;" glyph-name="pencil" horiz-adv-x="866" d="M207.429 73.143l52 52-134.286 134.286-52-52v-61.143h73.143v-73.143h61.143zM506.286 603.428c0 7.429-5.143 12.571-12.571 12.571-3.429 0-6.857-1.143-9.714-4l-309.714-309.714c-2.857-2.857-4-6.286-4-9.714 0-7.429 5.143-12.571 12.571-12.571 3.429 0 6.857 1.143 9.714 4l309.714 309.714c2.857 2.857 4 6.286 4 9.714zM475.429 713.143l237.714-237.714-475.429-475.429h-237.714v237.714zM865.714 658.286c0-19.429-8-38.286-21.143-51.429l-94.857-94.857-237.714 237.714 94.857 94.286c13.143 13.714 32 21.714 51.429 21.714s38.286-8 52-21.714l134.286-133.714c13.143-13.714 21.143-32.571 21.143-52z" />
<glyph unicode="&#xf053;" glyph-name="chevron-left" horiz-adv-x="768" d="M669.143 778.857l-303.429-303.429 303.429-303.429c14.286-14.286 14.286-37.143 0-51.429l-94.857-94.857c-14.286-14.286-37.143-14.286-51.429 0l-424 424c-14.286 14.286-14.286 37.143 0 51.429l424 424c14.286 14.286 37.143 14.286 51.429 0l94.857-94.857c14.286-14.286 14.286-37.143 0-51.429z" />
<glyph unicode="&#xf054;" glyph-name="chevron-right" horiz-adv-x="695" d="M632.571 449.714l-424-424c-14.286-14.286-37.143-14.286-51.429 0l-94.857 94.857c-14.286 14.286-14.286 37.143 0 51.429l303.429 303.429-303.429 303.429c-14.286 14.286-14.286 37.143 0 51.429l94.857 94.857c14.286 14.286 37.143 14.286 51.429 0l424-424c14.286-14.286 14.286-37.143 0-51.429z" />
<glyph unicode="&#xf077;" glyph-name="chevron-up" d="M961.714 190.286l-94.857-94.286c-14.286-14.286-37.143-14.286-51.429 0l-303.429 303.429-303.429-303.429c-14.286-14.286-37.143-14.286-51.429 0l-94.857 94.286c-14.286 14.286-14.286 37.714 0 52l424 423.429c14.286 14.286 37.143 14.286 51.429 0l424-423.429c14.286-14.286 14.286-37.714 0-52z" />
<glyph unicode="&#xf078;" glyph-name="chevron-down" d="M961.714 489.143l-424-423.429c-14.286-14.286-37.143-14.286-51.429 0l-424 423.429c-14.286 14.286-14.286 37.714 0 52l94.857 94.286c14.286 14.286 37.143 14.286 51.429 0l303.429-303.429 303.429 303.429c14.286 14.286 37.143 14.286 51.429 0l94.857-94.286c14.286-14.286 14.286-37.714 0-52z" />
<glyph unicode="&#xf104;" glyph-name="angle-left" horiz-adv-x="384" d="M358.286 640c0-4.571-2.286-9.714-5.714-13.143l-224.571-224.571 224.571-224.571c3.429-3.429 5.714-8.571 5.714-13.143s-2.286-9.714-5.714-13.143l-28.571-28.571c-3.429-3.429-8.571-5.714-13.143-5.714s-9.714 2.286-13.143 5.714l-266.286 266.286c-3.429 3.429-5.714 8.571-5.714 13.143s2.286 9.714 5.714 13.143l266.286 266.286c3.429 3.429 8.571 5.714 13.143 5.714s9.714-2.286 13.143-5.714l28.571-28.571c3.429-3.429 5.714-8 5.714-13.143z" />
<glyph unicode="&#xf105;" glyph-name="angle-right" horiz-adv-x="347" d="M340 402.286c0-4.571-2.286-9.714-5.714-13.143l-266.286-266.286c-3.429-3.429-8.571-5.714-13.143-5.714s-9.714 2.286-13.143 5.714l-28.571 28.571c-3.429 3.429-5.714 8-5.714 13.143 0 4.571 2.286 9.714 5.714 13.143l224.571 224.571-224.571 224.571c-3.429 3.429-5.714 8.571-5.714 13.143s2.286 9.714 5.714 13.143l28.571 28.571c3.429 3.429 8.571 5.714 13.143 5.714s9.714-2.286 13.143-5.714l266.286-266.286c3.429-3.429 5.714-8.571 5.714-13.143z" />
<glyph unicode="&#xf106;" glyph-name="angle-up" horiz-adv-x="658" d="M614.286 274.286c0-4.571-2.286-9.714-5.714-13.143l-28.571-28.571c-3.429-3.429-8-5.714-13.143-5.714-4.571 0-9.714 2.286-13.143 5.714l-224.571 224.571-224.571-224.571c-3.429-3.429-8.571-5.714-13.143-5.714s-9.714 2.286-13.143 5.714l-28.571 28.571c-3.429 3.429-5.714 8.571-5.714 13.143s2.286 9.714 5.714 13.143l266.286 266.286c3.429 3.429 8.571 5.714 13.143 5.714s9.714-2.286 13.143-5.714l266.286-266.286c3.429-3.429 5.714-8.571 5.714-13.143z" />
<glyph unicode="&#xf107;" glyph-name="angle-down" horiz-adv-x="658" d="M614.286 530.286c0-4.571-2.286-9.714-5.714-13.143l-266.286-266.286c-3.429-3.429-8.571-5.714-13.143-5.714s-9.714 2.286-13.143 5.714l-266.286 266.286c-3.429 3.429-5.714 8.571-5.714 13.143s2.286 9.714 5.714 13.143l28.571 28.571c3.429 3.429 8 5.714 13.143 5.714 4.571 0 9.714-2.286 13.143-5.714l224.571-224.571 224.571 224.571c3.429 3.429 8.571 5.714 13.143 5.714s9.714-2.286 13.143-5.714l28.571-28.571c3.429-3.429 5.714-8.571 5.714-13.143z" />
<glyph unicode="&#xf233;" glyph-name="server" d="M73.143 146.286h585.143v73.143h-585.143v-73.143zM73.143 438.857h585.143v73.143h-585.143v-73.143zM969.143 182.857c0 30.286-24.571 54.857-54.857 54.857s-54.857-24.571-54.857-54.857 24.571-54.857 54.857-54.857 54.857 24.571 54.857 54.857zM73.143 731.428h585.143v73.143h-585.143v-73.143zM969.143 475.428c0 30.286-24.571 54.857-54.857 54.857s-54.857-24.571-54.857-54.857 24.571-54.857 54.857-54.857 54.857 24.571 54.857 54.857zM969.143 768c0 30.286-24.571 54.857-54.857 54.857s-54.857-24.571-54.857-54.857 24.571-54.857 54.857-54.857 54.857 24.571 54.857 54.857zM1024 292.571v-219.429h-1024v219.429h1024zM1024 585.143v-219.429h-1024v219.429h1024zM1024 877.714v-219.429h-1024v219.429h1024z" />
<glyph unicode="&#xf296;" glyph-name="gitlab" d="M59.429 547.428l452.571-580-496 360c-13.714 10.286-19.429 28-14.286 44l57.714 176zM323.429 547.428h377.143l-188.571-580zM210.286 897.143l113.143-349.714h-264l113.143 349.714c6.286 17.714 31.429 17.714 37.714 0zM964.571 547.428l57.714-176c5.143-16-0.571-33.714-14.286-44l-496-360 452.571 580zM964.571 547.428h-264l113.143 349.714c6.286 17.714 31.429 17.714 37.714 0z" />
</font></defs></svg>