{
  "experienceLevels": 5,
  "skillset": {
    "main": [
      {
        "name": "Javascript ES6 / Typescript",
        "experience": 5
      },
      {
        "name": "React / Redux",
        "experience": 5
      },
      {
        "name": "Angular / NgRx",
        "experience": 5
      },
      {
        "name": "Node / Express / MongoDB",
        "experience": 4
      }
    ],
    "additional": [
      {
        "name": "PROFILE.FRONTEND",
        "skills": ["React", "Sass", "AngularJS", "Boostrap", "D3.js"]
      },
      {
        "name": "PROFILE.BACKEND",
        "skills": ["C#", ".NET", "ASP.NET MVC", "Entity Framework"]
      },
      {
        "name": "PROFILE.OTHER",
        "skills": ["Agile", "Jira", "Git", "SVN", "REST", "MongoDB"]
      }
    ]
  },
  "socialProfiles": [
    {
      "name": "Github",
      "url": "https://github.com/pabloibanezcom",
      "icon": "icon-github"
    },
    {
      "name": "GitLab",
      "url": "https://gitlab.com/pabloibanezcom",
      "icon": "icon-gitlab"
    },
    {
      "name": "Linkedin",
      "url": "https://www.linkedin.com/in/pablo-ibanez-dev/",
      "icon": "icon-linkedin fa-fw"
    }
  ],
  "profesionalProfile": [
    "PROFILE.PROFESIONAL_PROFILE_1",
    "PROFILE.PROFESIONAL_PROFILE_2",
    "PROFILE.PROFESIONAL_PROFILE_3"
  ],
  "hobbies": [
    {
      "icon": "icon-futbol-o",
      "animation": "bounceInDown",
      "text": "HOBBY_1"
    },
    {
      "icon": "icon-heartbeat",
      "animation": "bounceInUp",
      "text": "HOBBY_2"
    },
    {
      "icon": "icon-university",
      "animation": "bounceInRight",
      "text": "HOBBY_3"
    }
  ]
}
